Introduction to R
…
</br>

To remove missing observations, simply use negation: `filter(!is.na(height))`. Try this yourself.

---

# 2) dplyr::arrange()

```r
starwars %>% 
  arrange(birth_year)
```

```
## # A tibble: 87 x 13
##    name  height  mass hair_color skin_color eye_color birth_year gender
##    <chr>  <int> <dbl> <chr>      <chr>      <chr>          <dbl> <chr> 
##  1 Wick~     88  20   brown      brown      brown            8   male  
##  2 IG-88    200 140   none       metal      red             15   none  
##  3 Luke~    172  77   blond      fair       blue            19   male  
##  4 Leia~    150  49   brown      light      brown           19   female
##  5 Wedg~    170  77   brown      fair       hazel           21   male  
##  6 Plo ~    188  80   none       orange     black           22   male  
##  7 Bigg~    183  84   black      light      brown           24   male  
##  8 Han ~    180  80   brown      fair       brown           29   male  
##  9 Land~    177  79   black      dark       brown           31   male  
## 10 Boba~    183  78.2 black      fair       brown           31.5 male  
## # ... with 77 more rows, and 5 more variables: homeworld <chr>,
## #   species <chr>, films <list>, vehicles <list>, starships <list>
```
…
*Note.* Arranging on a character-based column (i.e. strings) will sort alphabetically. Try this yourself by arranging according to the "name" column.

---

# 2) dplyr::arrange() *cont.*

We can also arrange items in descending order using `arrange(desc())`.

```r
starwars %>% 
  arrange(desc(birth_year))
```

```
## # A tibble: 87 x 13
##    name  height  mass hair_color skin_color eye_color birth_year gender
##    <chr>  <int> <dbl> <chr>      <chr>      <chr>          <dbl> <chr> 
##  1 Yoda      66    17 white      green      brown            896 male  
##  2 Jabb~    175  1358 <NA>       green-tan~ orange           600 herma~
##  3 Chew~    228   112 brown      unknown    blue             200 male  
##  4 C-3PO    167    75 <NA>       gold       yellow           112 <NA>  
##  5 Dooku    193    80 white      fair       brown            102 male  
##  6 Qui-~    193    89 brown      fair       blue              92 male  
##  7 Ki-A~    198    82 white      pale       yellow            92 male  
##  8 Fini~    170    NA blond      fair       blue              91 male  
##  9 Palp~    170    75 grey       pale       yellow            82 male  
## 10 Clie~    183    NA brown      fair       blue              82 male  
## # ... with 77 more rows, and 5 more variables: homeworld <chr>,
## #   species <chr>, films <list>, vehicles <list>, starships <list>
```

---

# 3) dplyr::select()

Use commas to select multiple columns out of a data frame. (You can also use "first:last" for consecutive columns). Deselect a column with "-".

```r
starwars %>% 
  select(name:skin_color, species, -height)
```

```
## # A tibble: 87 x 5
##    name                mass hair_color    skin_color  species
##    <chr>              <dbl> <chr>         <chr>       <chr>  
##  1 Luke Skywalker        77 blond         fair        Human  
##  2 C-3PO                 75 <NA>          gold        Droid  
##  3 R2-D2                 32 <NA>          white, blue Droid  
##  4 Darth Vader          136 none          white       Human  
##  5 Leia Organa           49 brown         light       Human  
##  6 Owen Lars            120 brown, grey   light       Human  
##  7 Beru Whitesun lars    75 brown         light       Human  
##  8 R5-D4                 32 <NA>          white, red  Droid  
##  9 Biggs Darklighter     84 black         light       Human  
## 10 Obi-Wan Kenobi        77 auburn, white fair        Human  
## # ... with 77 more rows
```

---

# 3) dplyr::select() *cont.*

You can also rename some (or all) of your selected variables in place.

```r
starwars %>%
  select(alias=name, crib=homeworld, sex=gender) 
```

```
## # A tibble: 87 x 3
##    alias              crib     sex   
##    <chr>              <chr>    <chr> 
##  1 Luke Skywalker     Tatooine male  
##  2 C-3PO              Tatooine <NA>  
##  3 R2-D2              Naboo    <NA>  
##  4 Darth Vader        Tatooine male  
##  5 Leia Organa        Alderaan female
##  6 Owen Lars          Tatooine male  
##  7 Beru Whitesun lars Tatooine female
##  8 R5-D4              Tatooine <NA>  
##  9 Biggs Darklighter  Tatooine male  
## 10 Obi-Wan Kenobi     Stewjon  male  
## # ... with 77 more rows
```

---

# 3) dplyr::select() *cont.*

The `select(contains(PATTERN))` option provides a nice shortcut in relevant cases.

```r
starwars %>% 
  select(name, contains("color"))
```

```
## # A tibble: 87 x 4
##    name               hair_color    skin_color  eye_color
##    <chr>              <chr>         <chr>       <chr>    
##  1 Luke Skywalker     blond         fair        blue     
##  2 C-3PO              <NA>          gold        yellow   
##  3 R2-D2              <NA>          white, blue red      
##  4 Darth Vader        none          white       yellow   
##  5 Leia Organa        brown         light       brown    
##  6 Owen Lars          brown, grey   light       blue     
##  7 Beru Whitesun lars brown         light       blue     
##  8 R5-D4              <NA>          white, red  red      
##  9 Biggs Darklighter  black         light       brown    
## 10 Obi-Wan Kenobi     auburn, white fair        blue-gray
## # ... with 77 more rows
```

---

# 3) dplyr::select() *cont.*

The `select(..., everything())` option is another useful shortcut if you only want to bring some variable(s) to the "front" of a data frame.

```r
starwars %>% 
  select(species, homeworld, everything())
```

```
## # A tibble: 87 x 13
##    species homeworld name  height  mass hair_color skin_color eye_color
##    <chr>   <chr>     <chr>  <int> <dbl> <chr>      <chr>      <chr>    
##  1 Human   Tatooine  Luke~    172    77 blond      fair       blue     
##  2 Droid   Tatooine  C-3PO    167    75 <NA>       gold       yellow   
##  3 Droid   Naboo     R2-D2     96    32 <NA>       white, bl~ red      
##  4 Human   Tatooine  Dart~    202   136 none       white      yellow   
##  5 Human   Alderaan  Leia~    150    49 brown      light      brown    
##  6 Human   Tatooine  Owen~    178   120 brown, gr~ light      blue     
##  7 Human   Tatooine  Beru~    165    75 brown      light      blue     
##  8 Droid   Tatooine  R5-D4     97    32 <NA>       white, red red      
##  9 Human   Tatooine  Bigg~    183    84 black      light      brown    
## 10 Human   Stewjon   Obi-~    182    77 auburn, w~ fair       blue-gray
## # ... with 77 more rows, and 5 more variables: birth_year <dbl>,
## #   gender <chr>, films <list>, vehicles <list>, starships <list>
```
---

# 4) dplyr::mutate()

You can create new columns from scratch, or (more commonly) as transformations of existing columns.

```r
starwars %>% 
  select(name, birth_year) %>%
  mutate(dog_years = birth_year * 7) %>%
  mutate(comment = paste0(name, " is ", dog_years, " in dog years."))
```

```
## # A tibble: 87 x 4
##    name             birth_year dog_years comment                           
##    <chr>                 <dbl>     <dbl> <chr>                             
##  1 Luke Skywalker         19        133  Luke Skywalker is 133 in dog year~
##  2 C-3PO                 112        784  C-3PO is 784 in dog years.        
##  3 R2-D2                  33        231  R2-D2 is 231 in dog years.        
##  4 Darth Vader            41.9      293. Darth Vader is 293.3 in dog years.
##  5 Leia Organa            19        133  Leia Organa is 133 in dog years.  
##  6 Owen Lars              52        364  Owen Lars is 364 in dog years.    
##  7 Beru Whitesun l~       47        329  Beru Whitesun lars is 329 in dog ~
##  8 R5-D4                  NA         NA  R5-D4 is NA in dog years.         
##  9 Biggs Darklight~       24        168  Biggs Darklighter is 168 in dog y~
## 10 Obi-Wan Kenobi         57        399  Obi-Wan Kenobi is 399 in dog year~
## # ... with 77 more rows
```
…
# 4) dplyr::mutate() *cont*

*Note:* `mutate()` is order aware. So you can chain multiple mutates in a single call.

```r
starwars %>% 
  select(name, birth_year) %>%
  mutate(
    dog_years = birth_year * 7, ## Separate with a comma
    comment = paste0(name, " is ", dog_years, " in dog years.")
    )
```

```
## # A tibble: 87 x 4
##    name             birth_year dog_years comment                           
##    <chr>                 <dbl>     <dbl> <chr>                             
##  1 Luke Skywalker         19        133  Luke Skywalker is 133 in dog year~
##  2 C-3PO                 112        784  C-3PO is 784 in dog years.        
##  3 R2-D2                  33        231  R2-D2 is 231 in dog years.        
##  4 Darth Vader            41.9      293. Darth Vader is 293.3 in dog years.
##  5 Leia Organa            19        133  Leia Organa is 133 in dog years.  
##  6 Owen Lars              52        364  Owen Lars is 364 in dog years.    
##  7 Beru Whitesun l~       47        329  Beru Whitesun lars is 329 in dog ~
##  8 R5-D4                  NA         NA  R5-D4 is NA in dog years.         
##  9 Biggs Darklight~       24        168  Biggs Darklighter is 168 in dog y~
## 10 Obi-Wan Kenobi         57        399  Obi-Wan Kenobi is 399 in dog year~
## # ... with 77 more rows
```
…
---

# 5) dplyr::summarise()

Particularly useful in combination with the `group_by()` command.

```r
starwars %>% 
  group_by(species, gender) %>% 
  summarise(mean_height = mean(height, na.rm = T))
```

```
## # A tibble: 43 x 3
## # Groups:   species [38]
##    species   gender mean_height
##    <chr>     <chr>        <dbl>
##  1 Aleena    male            79
##  2 Besalisk  male           198
##  3 Cerean    male           198
##  4 Chagrian  male           196
##  5 Clawdite  female         168
##  6 Droid     none           200
##  7 Droid     <NA>           120
##  8 Dug       male           112
##  9 Ewok      male            88
## 10 Geonosian male           183
## # ... with 33 more rows
```
…
